Altitude(m)	Range Corrected Signal(m^-1 sr^-1)
0.0	0.0
7.47146	-355.311577994
14.94292	675373.344669
22.41438	871488.309794
29.88584	1184901.87028
37.3573	1480188.12068
44.82876	2016922.68356
52.30022	2646784.60641
59.77168	3717828.51434
67.24314	5017369.86498
74.7146	9147305.38265
82.18606	17978142.5859
89.65752	37271455.4869
97.12898	67487669.8351
104.60044	112318899.97
112.0719	178549950.26
119.54336	257654570.935
127.01482	363787951.008
134.48628	488203899.212
141.95774	630226290.828
149.4292	814690874.844
156.90066	1009173809.04
164.37212	1197706670.99
171.84358	1429694628.49
179.31504	1686330841.56
186.7865	1937105238.08
194.25796	2184494504.45
201.72942	2515653751.69
209.20088	2791316248.31
216.67234	3104346820.04
224.1438	3428640700.13
231.61526	3750668193.08
239.08672	4035191489.46
246.55818	4414615592.7
254.02964	4738362972.88
261.5011	5076374076.5
268.97256	5430716297.8
276.44402	5710629885.6
283.91548	6123840929.64
291.38694	6430606054.79
298.8584	6757195348.16
306.32986	7133904578.43
313.80132	7479644665.68
321.27278	7894969400.52
328.74424	8182906883.34
336.2157	8602491647.14
343.68716	9055574799.66
351.15862	9526206005.04
358.63008	9857047602.61
366.10154	10269757636.1
373.573	10781548146.4
381.04446	11112291987.8
388.51592	11626454267.9
395.98738	11924255425.1
403.45884	12342335400.0
410.9303	12644115351.3
418.40176	13060114787.9
425.87322	13150564709.4
433.34468	13545051888.3
440.81614	13835821204.4
448.2876	14148439266.9
455.75906	14328403706.7
463.23052	14299700454.3
470.70198	14606950147.4
478.17344	14949042998.4
485.6449	14830694540.5
493.11636	14870346876.4
500.58782	15041713759.6
508.05928	15251176032.0
515.53074	15114884985.9
523.0022	15298505837.5
530.47366	15342795106.6
537.94512	15464915601.4
545.41658	15565790432.6
552.88804	15432404978.3
560.3595	15466719793.5
567.83096	15400524319.0
575.30242	15293142805.0
582.77388	15339057011.4
590.24534	15088276352.1
597.7168	15168642805.1
605.18826	15402629085.1
612.65972	14964393841.9
620.13118	15165473499.2
627.60264	15312532358.5
635.0741	15166668013.7
642.54556	15034733740.1
650.01702	15384721441.9
657.48848	15050489197.7
664.95994	15327279172.0
672.4314	15087642901.9
679.90286	15090104568.4
687.37432	15329553266.8
694.84578	15347891780.8
702.31724	15259973168.2
709.7887	15203492472.2
717.26016	14882172924.0
724.73162	15232700470.5
732.20308	14916844768.2
739.67454	14949264149.9
747.146	15270658034.4
754.61746	14865219424.7
762.08892	14721968118.3
769.56038	14598677410.9
777.03184	14683672263.5
784.5033	14695381285.3
791.97476	14328076587.0
799.44622	14509577737.9
806.91768	14520954548.1
814.38914	14379903655.4
821.8606	13921553286.4
829.33206	14208836978.6
836.80352	14127789297.1
844.27498	14020520585.2
851.74644	13716234269.9
859.2179	13906985756.0
866.68936	13736765200.0
874.16082	13979211787.6
881.63228	13854651674.4
889.10374	13973476490.4
896.5752	13789703412.0
904.04666	13669867564.6
911.51812	13805354278.0
918.98958	13665223387.1
926.46104	13684901164.5
933.9325	13832375851.0
941.40396	13512199390.2
948.87542	13714924750.2
956.34688	13447935085.5
963.81834	13548335318.7
971.2898	13476180020.3
978.76126	13486002737.8
986.23272	13522467140.0
993.70418	13755777632.6
1001.17564	13309875141.7
1008.6471	13762596118.1
1016.11856	13640972551.0
1023.59002	13371878896.4
1031.06148	13660289888.6
1038.53294	13496589381.7
1046.0044	13475940792.1
1053.47586	13874456886.7
1060.94732	13575561904.6
1068.41878	13302842152.6
1075.89024	13056626538.2
1083.3617	13039073895.8
1090.83316	13728827829.6
1098.30462	13625619951.1
1105.77608	13455815533.4
1113.24754	13097921629.9
1120.719	12887471216.7
1128.19046	13292801852.4
1135.66192	13186998013.9
1143.13338	13014792122.5
1150.60484	13035876358.7
1158.0763	13114525551.5
1165.54776	13175610979.5
1173.01922	13565226327.6
1180.49068	13221571985.2
1187.96214	12968909575.7
1195.4336	13326905867.0
1202.90506	13259601918.1
1210.37652	13169917039.2
1217.84798	13561416103.6
1225.31944	13521130002.9
1232.7909	13063417456.0
1240.26236	12879211830.7
1247.73382	12731266702.1
1255.20528	12766027937.7
1262.67674	13130505661.0
1270.1482	12936275006.4
1277.61966	13010563123.2
1285.09112	13189601741.6
1292.56258	13243171958.0
1300.03404	12989403368.3
1307.5055	12863895016.5
1314.97696	12935247771.3
1322.44842	12662928054.9
1329.91988	13220288911.2
1337.39134	12975753306.5
1344.8628	13160929194.7
1352.33426	13356945757.5
1359.80572	12421388071.8
1367.27718	13395774043.8
1374.74864	12828180965.9
1382.2201	12316505069.7
1389.69156	12766740136.2
1397.16302	12744316646.0
1404.63448	12504141321.7
1412.10594	12515881251.4
1419.5774	12289969219.0
1427.04886	12578522297.4
1434.52032	12636496821.6
1441.99178	12175857800.0
1449.46324	12130081987.6
1456.9347	12682111082.0
1464.40616	12512289580.3
1471.87762	12423649336.9
1479.34908	12473501299.9
1486.82054	12703714291.6
1494.292	12443184511.8
1501.76346	12495758044.8
1509.23492	12524736057.2
1516.70638	12191271043.2
1524.17784	12592775216.7
1531.6493	12782222980.0
1539.12076	12698769193.2
1546.59222	12602298290.1
1554.06368	12721938621.9
1561.53514	13361498111.1
1569.0066	13167171821.0
1576.47806	12808241833.3
1583.94952	12756820829.4
1591.42098	13325725904.1
1598.89244	13586636032.6
1606.3639	13285563390.2
1613.83536	13547474059.3
1621.30682	13788863978.8
1628.77828	13300765973.3
1636.24974	13674738665.8
1643.7212	14061983726.2
1651.19266	13704804657.0
1658.66412	13785091972.3
1666.13558	14223250575.5
1673.60704	13667665008.2
1681.0785	13691059253.6
1688.54996	14243559344.9
1696.02142	14154150763.2
1703.49288	14383599588.3
1710.96434	14592015378.5
1718.4358	13467653658.9
1725.90726	13704168512.5
1733.37872	14147573135.1
1740.85018	14678923333.4
1748.32164	14169414320.3
1755.7931	13985581067.8
1763.26456	14185697186.5
1770.73602	13641442374.8
1778.20748	14038222840.2
1785.67894	13757857772.2
1793.1504	14143319765.8
1800.62186	14229003916.7
1808.09332	13510416350.1
1815.56478	13698117714.3
1823.03624	13069959570.2
1830.5077	13013122753.2
1837.97916	13052005773.9
1845.45062	13301374216.2
1852.92208	12406766165.8
1860.39354	12659309276.0
1867.865	12844928725.9
1875.33646	12360573572.6
1882.80792	11296511657.5
1890.27938	11096918751.6
1897.75084	10374486688.1
1905.2223	10866511901.9
1912.69376	10055599191.3
1920.16522	10510389512.4
1927.63668	9262091182.16
1935.10814	8989522281.02
1942.5796	8779825904.28
1950.05106	8315115026.57
1957.52252	7769683234.81
1964.99398	7249926780.73
1972.46544	7499695114.06
1979.9369	7380211836.19
1987.40836	6653957828.06
1994.87982	6270311167.97
2002.35128	5944492556.86
2009.82274	5944503944.42
2017.2942	5349875435.8
2024.76566	5000108311.32
2032.23712	4429969369.36
2039.70858	4508367072.95
2047.18004	4147506959.68
2054.6515	3937205188.39
2062.12296	3919115608.04
2069.59442	3664873854.49
2077.06588	3743153233.46
2084.53734	3639771949.5
2092.0088	3412073216.24
2099.48026	3401226150.23
2106.95172	3523140642.4
2114.42318	3212862854.52
2121.89464	3132052667.37
2129.3661	3004519608.94
2136.83756	2934319452.0
2144.30902	2747962289.28
2151.78048	2882899194.73
2159.25194	2930928298.84
2166.7234	2946551941.49
2174.19486	2839275696.84
2181.66632	2482809381.62
2189.13778	2840099064.01
2196.60924	2859518488.24
2204.0807	2913009879.59
2211.55216	2967029313.06
2219.02362	3120060449.73
2226.49508	2843669508.56
2233.96654	2807889889.16
2241.438	2871919567.91
2248.90946	2966961514.97
2256.38092	2910339469.69
2263.85238	3180771503.55
2271.32384	3531971707.64
2278.7953	3222900468.56
2286.26676	3474057578.36
2293.73822	3365270063.23
2301.20968	2990061903.51
2308.68114	3052149478.21
2316.1526	3141675774.31
2323.62406	3188973485.87
2331.09552	3068230160.39
2338.56698	3416063553.1
2346.03844	3311336687.73
2353.5099	3421085730.7
2360.98136	3024773914.33
2368.45282	3167358857.12
2375.92428	3475269538.62
2383.39574	3633494752.24
2390.8672	3204727558.29
2398.33866	3633182412.99
2405.81012	3603763022.12
2413.28158	4266813478.83
2420.75304	3777590289.5
2428.2245	3924766492.03
2435.69596	3812505918.14
2443.16742	4062755946.23
2450.63888	4267811528.95
2458.11034	3762151472.52
2465.5818	4161960255.39
2473.05326	3728523043.11
2480.52472	3664943874.32
2487.99618	4070842848.91
2495.46764	4244785676.3
2502.9391	3931947581.85
2510.41056	3974363415.6
2517.88202	4093151492.45
2525.35348	4149366284.79
2532.82494	4603773614.07
2540.2964	3959851577.49
2547.76786	4255806161.71
2555.23932	3725817422.48
2562.71078	4279604092.75
2570.18224	4046966795.38
2577.6537	3950932496.3
2585.12516	3927089542.29
2592.59662	3949822285.22
2600.06808	3756289306.26
2607.53954	4464633700.6
2615.011	4544961909.41
2622.48246	4357770380.2
2629.95392	4735385890.57
2637.42538	4393661040.75
2644.89684	4684417777.2
2652.3683	4985288041.56
2659.83976	5812860202.32
2667.31122	5062962180.33
2674.78268	5427625571.62
2682.25414	5191793822.2
2689.7256	5669304424.1
2697.19706	5679019688.48
2704.66852	5388655779.26
2712.13998	5072750425.37
2719.61144	5566704003.06
2727.0829	5046995698.3
2734.55436	5149466227.98
2742.02582	5561097814.64
2749.49728	4601119489.89
2756.96874	4869387602.0
2764.4402	4628341172.03
2771.91166	4684127017.61
2779.38312	4091414765.46
2786.85458	3810545405.15
2794.32604	4689913054.53
2801.7975	4589425224.87
2809.26896	4266687143.37
2816.74042	4836860302.43
2824.21188	4511602469.56
2831.68334	4407210068.77
2839.1548	5091483394.33
2846.62626	4915733908.33
2854.09772	5128927247.11
2861.56918	4779140821.37
2869.04064	4623039078.13
2876.5121	5184979679.65
2883.98356	4895889894.86
2891.45502	5539967957.04
2898.92648	5669480569.32
2906.39794	5876132484.62
2913.8694	5388454067.23
2921.34086	5492930683.84
2928.81232	5649732569.53
2936.28378	6040708524.83
2943.75524	5629538714.82
2951.2267	5919443488.91
2958.69816	5205372235.58
2966.16962	5434052919.42
2973.64108	6522567931.66
2981.11254	6111034232.92
2988.584	6007729854.23
2996.05546	5642846725.76
3003.52692	5445496342.84
3010.99838	5672076508.37
3018.46984	5590926773.98
3025.9413	6003204355.61
3033.41276	5692427468.56
3040.88422	5785232354.95
3048.35568	6315489446.81
3055.82714	5365987318.98
3063.2986	5232734372.14
3070.77006	5946653933.94
3078.24152	6117760189.26
3085.71298	5042985642.34
3093.18444	5756317324.53
3100.6559	6293704757.23
3108.12736	5966635547.61
3115.59882	6073011421.56
3123.07028	6355766266.62
3130.54174	5739393762.9
3138.0132	6091777314.75
3145.48466	6150502533.28
3152.95612	6428284081.35
3160.42758	7137990548.82
3167.89904	5887225012.04
3175.3705	5844446844.22
3182.84196	5882112963.22
3190.31342	6001363827.12
3197.78488	6019280346.46
3205.25634	5687862296.74
3212.7278	5951807300.78
3220.19926	5979522314.76
3227.67072	5371812352.53
3235.14218	6652648029.28
3242.61364	5852762764.33
3250.0851	5900891200.5
3257.55656	6681481825.93
3265.02802	6168485166.52
3272.49948	5993272716.81
3279.97094	6063703336.71
3287.4424	5756334268.96
3294.91386	5369983778.76
3302.38532	6844829649.19
3309.85678	6306168866.32
3317.32824	6169601288.39
3324.7997	5987392013.49
3332.27116	6180892342.31
3339.74262	6041332209.69
3347.21408	6359692908.93
3354.68554	5116423678.89
3362.157	5760964846.86
3369.62846	5411902517.65
3377.09992	5983359278.16
3384.57138	5219446289.35
3392.04284	4621194087.18
3399.5143	5369646131.72
3406.98576	5625425948.42
3414.45722	6326319973.11
3421.92868	5183076977.22
3429.40014	5158692068.94
3436.8716	4767771492.0
3444.34306	4835977461.73
3451.81452	5345496559.17
3459.28598	5201129048.06
3466.75744	4995270654.87
3474.2289	4908192797.73
3481.70036	5038426140.43
3489.17182	4512229089.3
3496.64328	4140325645.45
3504.11474	3986134766.76
3511.5862	4570388262.71
3519.05766	4701311314.59
3526.52912	4584495128.24
3534.00058	4516517412.56
3541.47204	4472924804.17
3548.9435	3874662814.6
3556.41496	4333677415.24
3563.88642	4936164445.76
3571.35788	4535981142.16
3578.82934	4631828111.94
3586.3008	4676910980.82
3593.77226	4076488854.28
3601.24372	4210177138.46
3608.71518	3810934467.14
3616.18664	4323649690.75
3623.6581	4643545123.32
3631.12956	4596787994.46
3638.60102	4867273209.51
3646.07248	4289059529.75
3653.54394	4226565353.01
3661.0154	4619154539.55
3668.48686	3911306494.54
3675.95832	5021780955.79
3683.42978	5381406818.79
3690.90124	5158050689.67
3698.3727	4495056591.02
3705.84416	4650569590.51
3713.31562	4393566532.9
3720.78708	5186543031.89
3728.25854	4887695465.08
3735.73	4600280126.16
3743.20146	4828873005.33
3750.67292	4215129551.06
3758.14438	4514412605.95
3765.61584	4546560262.21
3773.0873	4379549625.68
3780.55876	3882377066.33
3788.03022	5361353234.29
3795.50168	4402926769.84
3802.97314	4434740793.28
3810.4446	6136443831.87
3817.91606	5111025131.15
3825.38752	4867644102.6
3832.85898	4519406706.95
3840.33044	4935243122.28
3847.8019	4761992550.15
3855.27336	5062903200.56
3862.74482	5276516239.63
3870.21628	4847590813.96
3877.68774	5076835917.92
3885.1592	5141702066.55
3892.63066	5009971124.35
3900.10212	5637653577.99
3907.57358	4850010515.11
3915.04504	6340022587.56
3922.5165	6564264001.29
3929.98796	5307375691.86
3937.45942	5110524796.63
3944.93088	5939186920.46
3952.40234	5930462176.0
3959.8738	5576570363.06
3967.34526	6494804096.8
3974.81672	6945867205.04
3982.28818	7035438505.97
3989.75964	6345544475.58
3997.2311	6513133520.85
4004.70256	7531838279.67
4012.17402	7447285587.58
4019.64548	7119581949.46
4027.11694	7389338457.03
4034.5884	6147106109.9
4042.05986	6431306216.77
4049.53132	6635489557.29
4057.00278	6725834432.67
4064.47424	6370671245.12
4071.9457	5913272846.05
4079.41716	6001559415.68
4086.88862	6223995184.54
4094.36008	6950851771.52
4101.83154	6757517703.96
4109.303	6224907427.34
4116.77446	6569572839.69
4124.24592	7375873080.74
4131.71738	6600280305.37
4139.18884	5955990217.35
4146.6603	6888835350.13
4154.13176	7638468395.09
4161.60322	7094444544.3
4169.07468	7467564853.54
4176.54614	7738563829.59
4184.0176	6085699449.24
4191.48906	6160159237.68
4198.96052	6446609204.81
4206.43198	7725850255.48
4213.90344	7096311582.15
4221.3749	7264058164.7
4228.84636	6341987898.79
4236.31782	7405308089.69
4243.78928	6927179211.6
4251.26074	7746813745.76
4258.7322	6921637649.42
4266.20366	7928772059.32
4273.67512	7591281927.88
4281.14658	7856114882.07
4288.61804	7846775314.6
4296.0895	6748300326.55
4303.56096	7790428117.76
4311.03242	7891841698.48
4318.50388	7359735867.17
4325.97534	7722077238.4
4333.4468	7166632518.51
4340.91826	8265449914.72
4348.38972	7783397580.68
4355.86118	7070200091.83
4363.33264	7189668797.73
4370.8041	7080584532.4
4378.27556	8120785083.46
4385.74702	6936733775.78
4393.21848	8118410551.53
4400.68994	8184779817.75
4408.1614	7318728733.3
4415.63286	6154192381.22
4423.10432	6546749555.66
4430.57578	7236305692.28
4438.04724	7674353552.64
4445.5187	6356355594.55
4452.99016	6932954848.47
4460.46162	7433736543.93
4467.93308	6600276722.94
4475.40454	7583773482.22
4482.876	7126807812.45
4490.34746	6565850246.14
4497.81892	6486566300.02
4505.29038	6305157838.81
4512.76184	6794483255.71
4520.2333	6776135150.88
4527.70476	6819054220.82
4535.17622	6594764038.69
4542.64768	6265704963.66
4550.11914	5830853932.84
4557.5906	6057734920.84
4565.06206	6181811584.72
4572.53352	7435638910.86
4580.00498	6264300836.78
4587.47644	5379823259.28
4594.9479	6790855433.23
4602.41936	5393745784.8
4609.89082	7026355257.16
4617.36228	7837990855.75
4624.83374	6152250074.52
4632.3052	6794433452.92
4639.77666	6149015304.52
4647.24812	7680618897.62
4654.71958	6427016826.18
4662.19104	6099889458.23
4669.6625	5705146842.37
4677.13396	7429713319.67
4684.60542	6970667767.57
4692.07688	7301138679.99
4699.54834	5447120085.77
4707.0198	7037532303.51
4714.49126	7193249974.2
4721.96272	8018757114.31
4729.43418	7574434502.84
4736.90564	6117459116.15
4744.3771	7127173332.61
4751.84856	7939941063.86
4759.32002	7421302011.94
4766.79148	6853841266.3
4774.26294	7536357512.19
4781.7344	8245913458.73
4789.20586	6918448996.52
4796.67732	6548914332.62
4804.14878	5138381402.98
4811.62024	7099118258.92
4819.0917	8119799054.2
4826.56316	7912039123.88
4834.03462	8871269188.69
4841.50608	7070379032.94
4848.97754	7350856443.55
4856.449	6760314246.95
4863.92046	6662842603.4
4871.39192	7395241664.71
4878.86338	7632173622.33
4886.33484	7679443512.41
4893.8063	6792871079.81
4901.27776	7582349261.95
4908.74922	7581387981.13
4916.22068	6758561449.44
4923.69214	7457916639.5
4931.1636	7237404109.42
4938.63506	7064231321.77
4946.10652	7305797593.51
4953.57798	7745031051.84
4961.04944	8875952783.94
4968.5209	7174673717.74
4975.99236	6725818408.48
4983.46382	6299002815.14
4990.93528	6641727193.0
4998.40674	6586675278.23
5005.8782	8235204177.97
5013.34966	7681730701.6
5020.82112	8133191088.93
5028.29258	7803442857.37
5035.76404	8029521465.29
5043.2355	5179298267.05
5050.70696	7286446248.71
5058.17842	7026582868.69
5065.64988	6508479216.34
5073.12134	6501955868.53
5080.5928	6985745152.57
5088.06426	7601739721.44
5095.53572	7104791654.26
5103.00718	6656909814.43
5110.47864	6963704143.23
5117.9501	5281508875.84
5125.42156	6715517688.58
5132.89302	7657241404.01
5140.36448	5829915162.53
5147.83594	7198385864.9
5155.3074	6687752309.95
5162.77886	6973694001.77
5170.25032	6298874262.41
5177.72178	6558371480.58
5185.19324	6415995242.18
5192.6647	5302020262.42
5200.13616	4992791858.4
5207.60762	6444465655.83
5215.07908	5783044686.49
5222.55054	5199576133.82
5230.022	6965064288.23
5237.49346	5860293838.84
5244.96492	4006368898.95
5252.43638	4210907800.58
5259.90784	3780230056.36
5267.3793	3679995834.87
5274.85076	3662618892.87
5282.32222	3952031212.37
5289.79368	4466893348.55
5297.26514	3693812099.62
5304.7366	3141434620.19
5312.20806	3404265953.82
5319.67952	3498745652.82
5327.15098	3423444879.0
5334.62244	1981686518.66
5342.0939	2729228496.65
5349.56536	3108900084.88
5357.03682	2629726888.28
5364.50828	2665845313.6
5371.97974	2269261909.12
5379.4512	2536025028.01
5386.92266	1614468490.16
5394.39412	1909944889.75
5401.86558	3169985784.75
5409.33704	2622803210.68
5416.8085	3334257070.9
5424.27996	3284615738.68
5431.75142	2615080258.42
5439.22288	2178502191.71
5446.69434	2659154866.08
5454.1658	3707632579.27
5461.63726	3001889876.77
5469.10872	3129753200.25
5476.58018	3288274931.86
5484.05164	3146879040.8
5491.5231	3457027743.68
5498.99456	2952379021.22
5506.46602	3900363449.46
5513.93748	3120463893.05
5521.40894	3006982337.4
5528.8804	2526029524.39
5536.35186	4555839910.69
5543.82332	3830529223.82
5551.29478	3840861057.89
5558.76624	4407404684.9
5566.2377	3303872432.44
5573.70916	4120469920.1
5581.18062	4754515702.65
5588.65208	5204516299.2
5596.12354	4560792848.03
5603.595	3316968252.87
5611.06646	4553698004.3
5618.53792	7028134635.49
5626.00938	4451376424.42
5633.48084	4526679532.75
5640.9523	5747867630.87
5648.42376	4614534978.81
5655.89522	4274870159.09
5663.36668	5248383524.36
5670.83814	4812022963.61
5678.3096	3889658421.56
5685.78106	5193025349.44
5693.25252	4590832854.07
5700.72398	4570391936.68
5708.19544	3507124503.83
5715.6669	4300363821.19
5723.13836	4246105325.27
5730.60982	4585597887.82
5738.08128	4762190796.98
5745.55274	4576532151.7
5753.0242	4356761432.93
5760.49566	6292717039.05
5767.96712	5211159470.18
5775.43858	3556884087.54
5782.91004	4201491767.16
5790.3815	4815868670.8
5797.85296	4290463153.94
5805.32442	4773353256.3
5812.79588	5258688129.52
5820.26734	4764082617.33
5827.7388	4810284285.06
5835.21026	4890725611.34
5842.68172	5073942543.17
5850.15318	4368217538.71
5857.62464	3830394044.65
5865.0961	5216145780.28
5872.56756	5022521489.87
5880.03902	3583165499.69
5887.51048	4077556084.38
5894.98194	4991432892.09
5902.4534	4028602693.15
5909.92486	4283298625.33
5917.39632	4539244610.62
5924.86778	4129465887.59
5932.33924	4034309301.89
5939.8107	3656382826.62
5947.28216	4054658875.17
5954.75362	3249293773.99
5962.22508	3044163933.11
5969.69654	4370377437.88
5977.168	3416707394.71
5984.63946	2780568131.41
5992.11092	3756960825.6
5999.58238	2974445894.07
6007.05384	3559213973.85
6014.5253	4219214508.54
6021.99676	2779125740.85
6029.46822	3294988930.69
6036.93968	3485383213.34
6044.41114	3749760080.32
6051.8826	4125288751.18
6059.35406	3254302417.93
6066.82552	3004688169.25
6074.29698	2827608017.11
6081.76844	3722278056.95
6089.2399	3620192793.32
6096.71136	3071533811.16
6104.18282	3339894028.51
6111.65428	3236018073.24
6119.12574	3618371932.29
6126.5972	4002565332.33
6134.06866	3523185261.22
6141.54012	3795802761.61
6149.01158	3956285282.81
6156.48304	2563520939.23
6163.9545	2797712863.47
6171.42596	3071104796.85
6178.89742	3078545387.21
6186.36888	3966231658.25
6193.84034	3208544550.0
6201.3118	3177833709.55
6208.78326	2877103836.53
6216.25472	3772794363.6
6223.72618	3936808101.33
6231.19764	3247365062.64
6238.6691	2476737334.78
6246.14056	3419015717.54
6253.61202	3818276705.97
6261.08348	3239388380.8
6268.55494	3129239887.79
6276.0264	2782207218.33
6283.49786	3144176572.47
6290.96932	2795471596.28
6298.44078	3040137751.92
6305.91224	2291828639.21
6313.3837	2416839171.33
6320.85516	3381439924.43
6328.32662	3309343161.18
6335.79808	2835453995.93
6343.26954	3405464288.87
6350.741	3010172196.08
6358.21246	3381100911.69
6365.68392	2335481537.53
6373.15538	3397011952.83
6380.62684	3608543473.96
6388.0983	2923266745.15
6395.56976	4034498233.87
6403.04122	3715938642.76
6410.51268	3395858288.52
6417.98414	3280207093.75
6425.4556	2668551613.31
6432.92706	3047204110.43
6440.39852	4132733572.06
6447.86998	3560277461.04
6455.34144	3235161709.26
6462.8129	4078013854.92
6470.28436	2915240007.36
6477.75582	3467473716.5
6485.22728	2676371830.79
6492.69874	3609955150.86
6500.1702	2942232826.42
6507.64166	3287795667.06
6515.11312	3337796173.22
6522.58458	3941073593.1
6530.05604	3950107569.72
6537.5275	3830934091.17
6544.99896	2383237128.48
6552.47042	3333248524.15
6559.94188	3986346898.94
6567.41334	3175945145.34
6574.8848	3529008405.73
6582.35626	3753670506.13
6589.82772	3458215922.62
6597.29918	3770732622.82
6604.77064	3604786208.93
6612.2421	2957120262.91
6619.71356	1912112213.34
6627.18502	3717133762.42
6634.65648	3241314515.65
6642.12794	2983911702.65
6649.5994	4317143605.84
6657.07086	2687136582.3
6664.54232	4203319926.45
6672.01378	3411465871.52
6679.48524	3196032995.22
6686.9567	2934894616.59
6694.42816	3748133335.25
6701.89962	3846335290.07
6709.37108	3404759465.97
6716.84254	3908622382.12
6724.314	4233837498.88
6731.78546	2385256898.96
6739.25692	2980983114.93
6746.72838	3715889998.85
6754.19984	3131074854.38
6761.6713	4281010811.76
6769.14276	4153012954.98
6776.61422	3381503308.61
6784.08568	2560535143.0
6791.55714	2935180181.04
6799.0286	3126548935.13
6806.50006	3179752689.89
6813.97152	2954586278.15
6821.44298	3472922113.92
6828.91444	3060827343.87
6836.3859	2039332872.8
6843.85736	2324823168.2
6851.32882	3080953277.68
6858.80028	2052727469.79
6866.27174	3000115830.9
6873.7432	1919936522.62
6881.21466	2539677063.59
6888.68612	3019735064.72
6896.15758	2978732029.08
6903.62904	3747751485.55
6911.1005	2609548448.47
6918.57196	3668259800.5
6926.04342	3196486111.26
6933.51488	2866870841.04
6940.98634	2921230062.35
6948.4578	2589554964.1
6955.92926	2449972037.94
6963.40072	2794660609.46
6970.87218	2703474834.68
6978.34364	3683218769.62
6985.8151	2715077717.63
6993.28656	3405573272.95
7000.75802	3608896477.55
7008.22948	3616603675.52
7015.70094	4116519691.3
7023.1724	2941493426.65
7030.64386	3886924360.93
7038.11532	3498909475.74
7045.58678	2960298877.5
7053.05824	3563528243.51
7060.5297	3222124532.83
7068.00116	2729381048.13
7075.47262	3436026838.78
7082.94408	3041942551.92
7090.41554	3350007492.23
7097.887	3659351290.18
7105.35846	3616573123.47
7112.82992	2258189518.63
7120.30138	3834595549.91
7127.77284	3995062628.87
7135.2443	2730649631.32
7142.71576	3144518370.77
7150.18722	2997724769.87
7157.65868	3260153269.49
7165.13014	3318302077.18
7172.6016	3119441168.45
7180.07306	3074389939.88
7187.54452	2822487601.86
7195.01598	3242504648.95
7202.48744	3249242319.13
7209.9589	2632184894.15
7217.43036	2377186521.2
7224.90182	3165098874.52
7232.37328	3537799045.28
7239.84474	2234728526.52
7247.3162	3289815191.36
7254.78766	3401865699.9
7262.25912	3303395425.39
7269.73058	2358914343.07
7277.20204	2893342274.83
7284.6735	2740087075.26
7292.14496	3490165942.75
7299.61642	1685651990.18
7307.08788	4038419890.09
7314.55934	2869621516.18
7322.0308	2768262592.59
7329.50226	2720193387.11
7336.97372	3371716170.25
7344.44518	4079818080.78
7351.91664	3493565590.73
7359.3881	3121545789.45
7366.85956	2747992832.4
7374.33102	2916711954.93
7381.80248	3086098229.8
7389.27394	2327929382.68
7396.7454	2879757830.64
7404.21686	2227709333.74
7411.68832	3550602453.76
7419.15978	3337588807.19
7426.63124	2572146503.2
7434.1027	3737907993.6
7441.57416	4077687307.95
7449.04562	2809649090.65
7456.51708	2314891301.36
7463.98854	3378044059.84
7471.46	3161519437.5
7478.93146	3783124211.51
7486.40292	3230224390.01
7493.87438	3236675161.02
7501.34584	3637023692.6
7508.8173	2967684320.88
7516.28876	4442452613.37
7523.76022	2526652009.9
7531.23168	2815269931.42
7538.70314	2423034239.98
7546.1746	3338955480.38
7553.64606	3231455408.97
7561.11752	2265952694.22
7568.58898	2843268465.62
7576.06044	2332314570.91
7583.5319	3487116186.81
7591.00336	2629640756.35
7598.47482	3385398416.67
7605.94628	3507760144.8
7613.41774	2819085447.17
7620.8892	3289244822.77
7628.36066	3121121824.87
7635.83212	3068932739.5
7643.30358	2724420879.24
7650.77504	3432162123.12
7658.2465	2617786485.56
7665.71796	3680635026.44
7673.18942	1921478173.79
7680.66088	3636005915.0
7688.13234	2520043098.44
7695.6038	3117166699.85
7703.07526	2589186072.81
7710.54672	3248189015.96
7718.01818	3016215787.28
7725.48964	2843008764.12
7732.9611	2429919661.45
7740.43256	2075131649.44
7747.90402	3099649912.47
7755.37548	3165776753.47
7762.84694	2750046905.93
7770.3184	2030808918.74
7777.78986	2397680288.74
7785.26132	1129472825.35
7792.73278	1799635285.69
7800.20424	2289833312.1
7807.6757	1440784869.13
7815.14716	2420768073.62
7822.61862	2180625457.51
7830.09008	1878241367.1
7837.56154	1758972765.53
7845.033	1331516182.85
7852.50446	2012333701.12
7859.97592	1583710342.2
7867.44738	2391380096.98
7874.91884	2457938632.9
7882.3903	1841284097.2
7889.86176	1346776988.74
7897.33322	2097743374.31
7904.80468	1289397310.59
7912.27614	1917877023.68
7919.7476	1419721570.35
7927.21906	1359560751.82
7934.69052	1551002691.72
7942.16198	733911796.024
7949.63344	1556850010.54
7957.1049	1939670905.87
7964.57636	1308970424.52
7972.04782	1247873884.44
7979.51928	1122868557.22
7986.99074	1571516439.33
7994.4622	2085749383.18
8001.93366	2281742628.83
8009.40512	682241315.952
8016.87658	1326217848.89
8024.34804	1199910658.94
8031.8195	1976267663.46
8039.29096	1075123362.69
8046.76242	1271373818.19
8054.23388	1727830652.19
8061.70534	2250966505.67
8069.1768	2190029144.61
8076.64826	2585480114.43
8084.11972	1544617957.58
8091.59118	1809369784.62
8099.06264	632006048.755
8106.5341	1487479285.92
8114.00556	1292711188.08
8121.47702	1229134578.76
8128.94848	1627875956.52
8136.41994	1035057785.79
8143.8914	1501220361.1
8151.36286	1969089172.75
8158.83432	1240468170.99
8166.30578	1309429681.07
8173.77724	2313986321.38
8181.2487	2251285746.85
8188.72016	579021115.411
8196.19162	1789274232.61
8203.66308	1388737314.44
8211.13454	919308929.467
8218.606	785891713.126
8226.07746	1396336410.05
8233.54892	1059917410.43
8241.02038	1197670742.09
8248.49184	383391975.371
8255.9633	1406500790.78
8263.43476	1613900707.56
8270.90622	1137965245.16
8278.37768	934427507.168
8285.84914	1554012624.3
8293.3206	2038270601.43
8300.79206	1766332220.09
8308.26352	2045622337.94
8315.73498	2809969099.95
8323.20644	875299296.371
8330.6779	946271648.92
8338.14936	739395554.063
8345.62082	1019318776.86
8353.09228	1090918845.23
8360.56374	1162770298.35
8368.0352	1374921497.38
8375.50666	675886692.306
8382.97812	1801482248.58
8390.44958	1100698436.36
8397.92104	1173184669.1
8405.3925	1245923738.0
8412.86396	1248139697.97
8420.33542	1604867869.73
8427.80688	1039493738.08
8435.27834	45182739.6275
8442.7498	1185743202.32
8450.22126	1259249030.81
8457.69272	1404541936.28
8465.16418	547116500.078
8472.63564	260940491.292
8480.1071	1340084153.13
8487.57856	1846719503.84
8495.05002	550986454.421
8502.52148	1130299046.18
8509.99294	2291006062.2
8517.4644	698992270.124
8524.93586	409520984.535
8532.40732	1065456899.36
8539.87878	1213182724.51
8547.35024	484734496.291
8554.8217	1144247073.47
8562.29316	926308038.634
8569.76462	854484471.747
8577.23608	855975068.013
8584.70754	710072556.179
8592.179	1301913397.34
8599.65046	1082316614.88
8607.12192	491537704.293
8614.59338	1011869972.47
8622.06484	864945924.494
8629.5363	345163336.45
8637.00776	196565474.527
8644.47922	1243083994.09
8651.95068	1918939983.34
8659.42214	1247385319.57
8666.8936	949078589.452
8674.36506	950715637.168
8681.83652	1027728380.88
8689.30798	576473598.663
8696.77944	880001271.527
8704.2509	199638097.129
8711.72236	731239715.913
8719.19382	732494524.289
8726.66528	809905095.279
8734.13674	429866789.782
8741.6082	1729669684.63
8749.07966	1502988463.8
8756.55112	968816264.279
8764.02258	432813597.196
8771.49404	1126003841.1
8778.9655	1898625245.39
8786.43696	898239155.25
8793.90842	513103295.861
8801.37988	1133689851.84
8808.85134	902827853.558
8816.3228	904360017.65
8823.79426	905893480.737
8831.26572	2155288310.29
8838.73718	283978104.396
8846.20864	988757071.266
8853.6801	363326763.836
8861.15156	992100288.057
8868.62302	1229731435.23
8876.09448	1231804307.06
8883.56594	602536973.992
8891.0374	1710258563.75
8898.50886	-28901962.875
8905.98032	288315424.648
8913.45178	-267347980.165
8920.92324	528032352.097
8928.3947	-29096424.6504
8935.86616	849201602.353
8943.33762	210755963.314
8950.80908	1412862998.5
8958.28054	612714783.432
8965.752	854891379.423
8973.22346	1178391749.12
8980.69492	938396273.299
8988.16638	1101532584.01
8995.63784	1103364654.52
9003.1093	213582499.574
9010.58076	457508837.339
9018.05222	-192334253.718
9025.52368	1029248081.72
9032.99514	1112547841.35
9040.4666	542278791.154
9047.93806	625040673.256
9055.40952	626073371.424
9062.88098	627106922.006
9070.35244	1286311672.09
9077.8239	1123617900.96
9085.29536	795297871.785
9092.76682	713928056.904
9100.23828	1460430828.64
9107.70974	467425372.75
9115.1812	385106058.711
9122.65266	635406013.522
9130.12412	1136602234.5
9137.59558	470498004.563
9145.06704	136738730.657
9152.5385	555807056.195
9160.00996	221091736.801
9167.48142	1061879711.43
9174.95288	1316150553.08
9182.42434	390808909.182
9189.8958	475899331.432
9197.36726	730448159.59
9204.83872	1409467844.25
9212.31018	478223622.634
9219.78164	308990897.634
9227.2531	1842051492.06
9234.72456	-116407387.959
9242.19602	-31177638.3543
9249.66748	1508786205.63
9257.13894	-288362400.858
9264.6104	312002976.315
9272.08186	914306923.967
9279.55332	399120359.01
9287.02478	1348500445.55
9294.49624	1782609371.43
9301.9677	141470996.055
9309.43916	921689267.233
9316.91062	141925886.424
9324.38208	1707147426.55
9331.85354	751965940.399
9339.325	1450954462.86
9346.79646	579650877.969
9354.26792	405573291.759
9361.73938	756790088.031
9369.21084	1548037540.96
9376.6823	231674920.467
9384.15376	1464917055.7
9391.62522	-296801830.678
9399.09668	939528000.684
9406.56814	1471923424.61
9414.0396	-564092661.223
9421.51106	588954916.787
9428.98252	1034417951.7
9436.45398	590824613.76
9443.92544	770136028.83
9451.3969	1485986307.42
9458.86836	56813571.0639
9466.33982	1490688792.79
9473.81128	864771120.129
9481.28274	1225714539.87
9488.7542	1587792906.29
9496.22566	147441523.42
9503.69712	779915436.022
9511.16858	419292889.155
9518.64004	1688415010.51
9526.1115	148371018.508
9533.58296	784828277.017
9541.05442	2151534689.09
9548.52588	1243162214.27
9555.99734	1793010967.16
9563.4688	1155596284.9
9570.94026	1340608404.33
9578.41172	58258691.6344
9585.88318	1344797803.04
9593.35464	-309689205.182
9600.8261	-402347636.768
9608.29756	-218335338.434
9615.76902	521029083.022
9623.24048	151412048.244
9630.71194	58896638.9192
9638.1834	1266617588.1
9645.65486	896427466.73
9653.12632	1829645215.57
9660.59778	245917038.845
9668.06924	1087541633.52
9675.5407	714758830.638
9683.01216	809623855.977
9690.48362	247440920.8
9697.95508	-34328371.4478
9705.42654	813376452.832
9712.898	625948471.45
9720.36946	626911839.482
9727.84092	2236601060.68
9735.31238	818393412.121
9742.78384	60275366.4651
9750.2553	440637762.454
9757.72676	250886865.063
9765.19822	346630314.963
9772.66968	1779737029.29
9780.14114	252040808.493
9787.6126	731412846.713
9795.08406	732529933.754
9802.55552	157107304.872
9810.02698	1119713182.47
9817.49844	1217802687.45
9824.9699	1123126940.19
9832.44136	1704897186.13
9839.91282	351954819.449
9847.38428	934315364.917
9854.85574	2392506405.1
9862.3272	450825582.302
9869.79866	1523051091.58
9877.27012	1915599730.74
9884.74158	159752769.829
9892.21304	2312823696.12
9899.6845	846262408.878
9907.15596	-428432341.677
9914.62742	259020070.172
9922.09888	1145443017.36
9929.57034	1935939668.74
9937.0418	2037598942.53
9944.51326	1743984121.06
9951.98472	1845647667.52
9959.45618	1550847648.32
9966.92764	1851194314.04
9974.3991	162663922.159
9981.87056	-36367775.055
9989.34202	1061234255.71
9996.81348	563140936.413
10004.28494	1364668753.49
10011.7564	1567178387.24
10019.22786	1167978624.6
10026.69932	667047729.548
10034.17078	1070780542.78
10041.64224	870706588.596
10049.1137	1376926195.73
10056.58516	468760285.047
10064.05662	-644680524.916
10071.52808	1078768434.11
10078.99954	2400990586.88
10086.471	369813621.445
10093.94246	981687742.707
10101.41392	166833050.804
10108.88538	1495544263.67
10116.35684	1088393086.22
10123.8283	1499968948.42
10131.29976	1399540506.87
10138.77122	-345904104.43
10146.24268	1300725748.99
10153.71414	271662995.055
10161.1856	581812018.915
10168.65706	686069525.79
10176.12852	687078080.635
10183.59998	273264542.036
10191.07144	65949790.0554
10198.5429	-141974028.491
10206.01436	691119707.688
10213.48582	-246705666.988
10220.95728	2051228546.17
10228.42874	1217262478.48
10235.9002	1533362410.26
10243.37166	171555093.948
10250.84312	1222603294.65
10258.31458	-248876087.623
10265.78604	593852155.612
10273.2575	1227955801.76
10280.72896	701275629.042
10288.20042	1125683566.93
10295.67188	1445321718.75
10303.14334	1022801138.47
10310.6148	2087372847.27
10318.08626	280529752.221
10325.55772	174319027.544
10333.02918	2203229738.14
10340.50064	388675840.921
10347.9721	603398767.292
10355.44356	175329570.515
10362.91502	712532701.167
10370.38648	-254343725.736
10377.85794	283789329.839
10385.3294	1362748768.34
10392.80086	1148689643.83
10400.27232	68685196.8497
10407.74378	610389570.875
10415.21524	285836126.886
10422.6867	720775961.038
10430.15816	504233303.49
10437.62962	1049676519.93
10445.10108	505679133.009
10452.57254	724915369.391
10460.044	1382427196.29
10467.51546	1603540557.41
10474.98692	1386379809.56
10482.45838	399420828.957
10489.92984	-480318611.43
10497.4013	400560402.784
10504.87276	1063244908.67
10512.34422	733229742.933
10519.81568	734272373.08
10527.28714	1067787067.58
10534.7586	403416439.394
10542.23006	1181959166.67
10549.70152	1183635109.98
10557.17298	70773227.3443
10564.64444	-263961699.22
10572.1159	1300439698.61
10579.58736	-40853599.0784
10587.05882	1192032636.76
10594.53028	1418203847.87
10602.00174	1645009722.5
10609.4732	-41084736.3773
10616.94466	-266581650.405
10624.41612	71677668.3607
10631.88758	523926650.336
10639.35904	-267708447.25
10646.8305	-154729574.585
10654.30196	1320737138.22
10661.77342	981569916.587
10669.24488	755280537.163
10676.71634	870330995.23
10684.1878	985701388.346
10691.65926	186899429.592
10699.13072	988460523.143
10706.60218	645947545.907
10714.07364	187683896.43
10721.5451	1567364102.43
10729.01656	533543176.058
10736.48802	419014356.138
10743.95948	-619296249.377
10751.43094	304588259.224
10758.9024	420765720.4
10766.37386	-274138516.411
10773.84532	-42367646.1874
10781.31678	771231111.674
10788.78824	655902457.759
10796.2597	540252000.968
10803.73116	1358044262.18
10811.20262	541748543.19
10818.67408	893628717.064
10826.14554	426041728.066
10833.617	-394940820.824
10841.08846	1014864633.34
10848.55992	663190206.924
10856.03138	1017664258.59
10863.50284	547002741.48
10870.9743	547755411.142
10878.44576	-279875476.792
10885.91722	1141778271.5
10893.38868	431350608.053
10900.86014	907257519.931
10908.3316	432534823.304
10915.80306	1028901321.9
10923.27452	-640140674.274
10930.74598	1390163851.35
10938.21744	-282959480.809
10945.6889	195886252.485
10953.16036	556068930.876
10960.63182	76286010.6824
10968.10328	-404807109.372
10975.57474	1401589807.56
10983.0462	559107553.258
10990.51766	559868502.545
10997.98912	76806910.5741
11005.46058	-528689509.653
11012.93204	198300438.912
11020.4035	198569594.55
11027.87496	-530845224.072
11035.34642	442666194.665
11042.81788	1052984943.82
11050.28934	-410896429.985
11057.7608	1055836628.21
11065.23226	1179703281.46
11072.70372	936087401.167
11080.17518	446269975.141
11087.64664	692743841.656
11095.1181	2293999166.74
11102.58956	78274859.2855
11110.06102	2547049361.84
11117.53248	-45113827.882
11125.00394	449888365.537
11132.4754	574424859.544
11139.94686	451097742.319
11147.41832	-169621636.549
11154.88978	452308742.424
11162.36124	951308085.033
11169.8327	-170304446.875
11177.30416	1328653184.31
11184.77562	454735612.61
11192.24708	580609739.433
11199.71854	581385178.064
11207.19	1712571103.44
11214.66146	-297442813.882
11222.13292	1591204737.01
11229.60438	206180063.759
11237.07584	80182639.6305
11244.5473	965368208.802
11252.01876	1093259442.52
11259.49022	1221487916.34
11266.96168	969220688.682
11274.43314	843393710.839
11281.9046	-46457700.5623
11289.37606	718180816.629
11296.84752	1357225553.97
11304.31898	847870909.137
11311.79044	-302617365.997
11319.2619	1875119472.58
11326.73336	466351920.092
11334.20482	852359959.713
11341.67628	210315970.074
11349.14774	1112215238.45
11356.6192	855734525.703
11364.09066	469433192.982
11371.56212	340738240.004
11379.03358	1247562974.24
11386.50504	730591820.741
11393.9765	212260115.289
11401.44796	82545564.8962
11408.91942	212817228.213
11416.39088	343430039.21
11423.86234	2301449163.51
11431.3338	1651083583.57
11438.80526	-309451418.561
11446.27672	214213204.978
11453.74818	3363013284.85
11461.21964	1922447096.74
11468.6911	-179539645.122
11476.16256	1005547114.74
11483.63402	611235296.165
11491.10548	-312287619.686
11498.57694	1009478869.01
11506.0484	878402008.811
11513.51986	481859742.325
11520.99132	747951813.01
11528.46278	-181415944.805
11535.93424	-48573389.2582
11543.4057	-714887404.305
11550.87716	1685796612.59
11558.34862	1287191898.88
11565.82008	-182593584.978
11573.29154	754757969.289
11580.763	219276507.168
11588.23446	219559535.866
11595.70592	488763538.672
11603.17738	-183775035.051
11610.64884	220409717.204
11618.1203	490654914.675
11625.59176	356131801.234
11633.06322	-726035577.759
11640.53468	1170060181.34
11648.00614	764534525.056
11655.4776	901365798.888
11662.94906	1582643670.33
11670.42052	1993268195.69
11677.89198	1313955407.17
11685.36344	1315637269.91
11692.8349	907153044.371
11700.30636	1045209884.69
11707.77782	-461247486.889
11715.24928	-187342244.67
11722.72074	-50159096.265
11730.1922	-600612690.499
11737.66366	638576687.885
11745.13512	1605027295.21
11752.60658	-188538934.344
11760.07804	641017883.574
11767.5495	1057258314.13
11775.02096	365345697.533
11782.49242	1337599374.69
11789.96388	1478299545.58
11797.43534	1480173776.2
11804.9068	645914246.82
11812.37826	925796678.844
11819.84972	926968202.521
11827.32118	788254940.672
11834.79264	-751434329.803
11842.2641	1631683313.23
11849.73556	-893749322.039
11857.20702	932836932.421
11864.67848	1356324687.0
11872.14994	89501944.5656
11879.6214	230740036.533
11887.09286	1078848226.82
11894.56432	1787608143.68
11902.03578	1931513043.58
11909.50724	231902453.014
11916.9787	658236657.494
11924.45016	1370024849.44
11931.92162	659888442.685
11939.39308	-52030424.0983
11946.86454	233359580.771
11954.336	376557703.144
11961.80746	377028547.366
11969.27892	234236047.909
11976.75038	664856217.696
11984.22184	522064418.256
11991.6933	810316990.714
11999.16476	955307001.011
12006.63622	956497043.874
12014.10768	1102026610.85
12021.57914	1681471177.0
12029.0506	-486908966.305
12036.52206	2120287529.41
12043.99352	1542689489.34
12051.46498	1544604089.83
12058.93644	1982773721.85
12066.4079	529249455.579
12073.87936	1404576452.58
12081.35082	-199234086.373
12088.82228	-199480586.92
12096.29374	970835338.091
12103.7652	3169551991.18
12111.23666	239825157.365
12118.70812	974436578.913
12126.17958	681550011.642
12133.65104	-200962790.52
12141.1225	1715078764.44
12148.59396	241306928.06
12156.06542	241603829.82
12163.53688	241900914.12
12171.00834	1575399177.07
12178.4798	1577333962.49
12185.95126	539788078.484
12193.42272	1283847980.12
12200.89418	-352058201.442
12208.36564	988908211.266
12215.8371	1139345671.67
12223.30856	94874887.8171
12230.78002	543766846.928
12238.25148	1443080191.14
12245.72294	395138619.402
12253.1944	-655364474.163
12260.66586	546427475.847
12268.13732	95572067.747
12275.60878	1903975363.57
12283.08024	1453671569.86
12290.5517	549094598.064
12298.02316	2515900250.57
12305.49462	-660970988.584
12312.96608	1157535735.7
12320.43754	-662577235.838
12327.909	-359426409.839
12335.38046	-55538988.0489
12342.85192	1315507654.04
12350.32338	2079753198.3
12357.79484	-208456102.365
12365.2663	1778989297.14
12372.73776	-974383731.549
12380.20922	1016943665.5
12387.68068	-516374838.799
12395.15214	404840863.972
12402.6236	405329065.15
12410.09506	405817560.514
12417.56652	252110391.786
12425.03798	-56349272.6136
12432.50944	716419393.672
12439.9809	1491046357.37
12447.45236	718142590.629
12454.92382	98504455.8749
12462.39528	1030490449.72
12469.86674	409736114.113
12477.3382	721595194.263
12484.80966	722459638.862
12492.28112	567267513.357
12499.75258	1974140596.98
12507.22404	255764117.96
12514.6955	569304988.569
12522.16696	569984958.635
12529.63842	-842261215.891
12537.10988	885704364.547
12544.58134	414660782.824
12552.0528	100046808.729
12559.52426	-215317351.755
12566.99572	1047861445.76
12574.46718	732873337.23
12581.93864	100523789.262
12589.4101	100643211.633
12596.88156	-533962995.248
12604.35302	100882269.059
12611.82448	260060020.828
12619.29594	-217371649.979
12626.7674	101241386.908
12634.23886	1059105184.08
12641.71032	2818299430.13
12649.18178	1221613740.74
12656.65324	-378851410.477
12664.1247	-218918774.279
12671.59616	904808282.979
12679.06762	-58676945.8351
12686.53908	-219694393.776
12694.01054	-219953238.4
12701.482	425098344.565
12708.95346	425598607.358
12716.42492	749514089.828
12723.89638	750395093.677
12731.36784	1075452069.16
12738.8393	589880627.095
12746.31076	1402914962.05
12753.78222	-384688442.564
12761.25368	-547988888.808
12768.72514	-385590408.123
12776.1966	-222810587.402
12783.66806	-59649091.7099
12791.13952	1740026916.09
12798.61098	1742060251.49
12806.08244	1252107531.86
12813.5539	432633175.95
12821.02536	1419409999.22
12828.49682	1256494474.59
12835.96828	-60138159.8151
12843.43974	434653643.375
12850.9112	-225424178.985
12858.38266	1097017660.73
12865.85412	-60418523.8165
12873.32558	-391933739.671
12880.79704	769015711.608
12888.2685	-891166549.339
12895.73996	1436001442.22
12903.21142	-60769895.7065
12910.68288	3606245821.08
12918.15434	439725404.94
12925.6258	440234199.117
12933.09726	608008292.218
12940.56872	106336032.436
12948.04018	-228844631.246
12955.51164	-732644655.293
12962.9831	946899375.345
12970.45456	106827759.098
12977.92602	443803995.562
12985.39748	950176786.366
12992.86894	276011941.782
13000.3404	952364872.657
13007.81186	953459859.485
13015.28332	-400625323.763
13022.75478	786059578.448
13030.22624	-741119363.953
13037.6977	1467790781.97
13045.16916	1299297107.28
13052.64062	619300137.708
13060.11208	108309744.989
13067.58354	962242402.504
13075.055	279514798.419
13082.52646	1820206822.36
13089.99792	794198191.104
13097.46938	623561364.622
13104.94084	109054566.257
13112.4123	796920376.567
13119.88376	109303407.171
13127.35522	1143392664.4
13134.82668	-408018484.076
13142.29814	-581202801.348
13149.7696	-1100613143.99
13157.24106	-928751203.748
13164.71252	283361287.125
13172.18398	-410342708.849
13179.65544	1847334781.79
13187.1269	284327016.458
13194.59836	-411740412.21
13202.06982	2027918224.04
13209.54128	-587165515.486
13217.01274	809685488.441
13224.4842	-588494695.628
13231.95566	811517355.476
13239.42712	637151634.743
13246.89858	1690752902.36
13254.37004	462912386.789
13261.8415	-64194900.5895
13269.31296	-64267253.2471
13276.78442	993298380.556
13284.25588	112059373.471
13291.72734	995535538.362
13299.1988	2057867193.28
13306.67026	2060180053.11
13314.14172	-596501334.176
13321.61318	-242240240.584
13329.08464	1001139442.51
13336.5561	-64920260.9421
13344.02756	825322336.505
13351.49902	1717559438.79
13358.97048	470247613.172
13366.44194	828097304.578
13373.9134	471300209.627
13381.38486	650888409.904
13388.85632	-65430437.8485
13396.32778	652342908.691
13403.79924	1371718103.1
13411.2707	294074667.224
13418.74216	294402418.291
13426.21362	114467139.728
13433.68508	655986257.702
13441.15654	-246607300.666
13448.628	-66015942.2051
13456.09946	1382443587.79
13463.57092	-247430467.718
13471.04238	-429174144.331
13478.51384	-974661349.073
13485.9853	-611998605.357
13493.45676	1025983470.01
13500.92822	-613355586.327
13508.39968	-614034640.343
13515.87114	116001020.647
13523.3426	1579175665.49
13530.81406	3045584526.02
13538.28552	1032811960.12
13545.75698	300002115.084
13553.22844	-67046850.4186
13560.6999	1404019861.87
13568.17136	-435385323.138
13575.64282	1591413903.32
13583.11428	-620845843.274
13590.58574	301991073.937
13598.0572	857044684.813
13605.52866	-1178227760.4
13613.00012	1229556878.99
13620.47158	-253231040.874
13627.94304	-67788103.498
13635.4145	2163231890.11
13642.88596	1421089855.42
13650.35742	-68011274.0582
13657.82888	-254622035.461
13665.30034	1052282342.11
13672.7718	118709877.321
13680.24326	-255458460.966
13687.71472	-443091108.516
13695.18618	-68458715.4443
13702.65764	2372383311.55
13710.1291	-68608188.5776
13717.60056	495834709.101
13725.07202	1438262990.92
13732.54348	-445998204.767
13740.01494	1252608450.01
13747.4864	-68982584.5461
13754.95786	498539011.2
13762.42932	688485214.964
13769.90078	-258817878.625
13777.37224	1069613080.21
13784.8437	1450817327.39
13792.31516	1262162497.83
13799.78662	692227992.604
13807.25808	692977765.625
13814.72954	502881192.214
13822.201	1840797972.07
13829.67246	1269009040.73
13837.14392	695980916.021
13844.61538	1271752843.26
13852.08684	-70036313.0854
13859.5583	2042849033.94
13867.02976	-70187497.7431
13874.50122	507242201.113
13881.97268	507788651.062
13889.44414	315418736.677
13896.9156	315758170.321
13904.38706	-457230131.551
13911.85852	2058295852.56
13919.32998	316777566.496
13926.80144	705029326.999
13934.2729	-70869845.8569
13941.74436	123426369.733
13949.21582	-460183171.013
13956.68728	123691091.093
13964.15874	1293809934.01
13971.6302	2271227050.93
13979.10166	124088704.845
13986.57312	-658275526.012
13994.04458	124354135.154
14001.51604	908656762.324
14008.9875	713375041.368
14016.45896	1303519542.99
14023.93042	2288262715.18
14031.40188	2290701577.48
14038.87334	-71937837.0996
14046.3448	1506383990.11
14053.81626	1705496703.94
14061.28772	520991705.528
14068.75918	323615525.254
14076.23064	918380146.956
14083.7021	324303337.016
14091.17356	-271036000.187
14098.64502	523763670.339
14106.11648	1718214078.74
14113.58794	325681151.023
14121.0594	-670995532.016
14128.53086	525986537.53
14136.00232	-872242941.345
14143.47378	-473089516.588
14150.94524	928155279.245
14158.4167	-273628942.11
14165.88816	1532133677.51
14173.35962	-475090950.701
14180.83108	2138655642.22
14188.30254	329138463.86
14195.774	934045197.493
14203.24546	1540225206.49
14210.71692	-477598684.275
14218.18838	330526500.123
14225.65984	-680973023.878
14233.1313	1141549719.91
14240.60276	-276814856.911
14248.07422	940940313.966
14255.54568	-277396095.296
14263.01714	2366950610.08
14270.4886	332962591.383
14277.96006	537171478.057
14285.43152	-686707508.243
14292.90298	-483138933.784
14300.37444	1152361495.91
14307.8459	2177138221.46
14315.31736	949842722.03
14322.78882	540549906.699
14330.26028	541114007.79
14337.73174	-75033251.2786
14345.2032	336458237.679
14352.67466	-281189003.408
14360.14612	-75268035.7545
14367.61758	750367360.953
14375.08904	131218422.417
14382.5605	1579361185.3
14390.03196	1995148545.87
14397.50342	753492260.69
14404.97488	1376784404.08
14412.44634	339619926.538
14419.9178	2003444372.87
14427.38926	-1116722394.01
14434.86072	1382503128.58
14442.33218	-284713008.759
14449.80364	550179634.493
14457.2751	968774343.375
14464.74656	-704055225.097
14472.21802	-704782742.718
14479.68948	-915172043.463
14487.16094	1182661583.89
14494.6324	-1337250654.94
14502.10386	-497385553.706
14509.57532	1607379569.51
14517.04678	-76921796.2326
14524.51824	766845525.428
14531.9897	345277214.788
14539.46116	2248195724.3
14546.93262	769214158.846
14554.40408	-289148875.639
14561.87554	-1349686915.48
14569.347	1196118188.76
14576.81846	772378018.371
14584.28992	773169997.831
14591.76138	-77715617.5624
14599.23284	4611231965.54
14606.7043	1415615802.72
14614.17576	-505102824.886
14621.64722	563343415.168
14629.11868	991941510.394
14636.59014	136035904.538
14644.0616	-936067877.731
14651.53306	-78353608.668
14659.00452	781112113.136
14666.47598	1857436145.1
14673.94744	352055939.227
14681.4189	352414539.6
14688.89036	-510280677.519
14696.36182	1433047541.69
14703.83328	1434505001.59
14711.30474	-78994207.8109
14718.7762	3603845871.96
14726.24766	-79154765.1024
14733.71912	572012332.447
14741.19058	-731223584.544
14748.66204	-79395906.6691
14756.1335	2315701865.88
14763.60496	138407159.948
14771.07642	-79637414.991
14778.54788	1449120342.82
14786.01934	357454111.554
14793.4908	1233204930.23
14800.96226	1453519390.16
14808.43372	2332146057.76
14815.90518	358900560.705
14823.37664	798727619.366
14830.8481	-740145396.304
14838.31956	-961067049.947
14845.79102	-741637624.547
14853.26248	140093323.0
14860.73394	2348648429.76
14868.2054	-301751720.93
14875.67686	-523340827.232
14883.14832	-1188390977.5
14890.61978	3023296150.59
14898.09124	-302966012.343
14905.5627	1696312228.45
14913.03416	808418866.861
14920.50562	1699715060.55
14927.97708	587195256.712
14935.44854	141647940.663
14942.92	2597989134.3
14950.39146	-81582684.7546
14957.86292	-752877236.444
14965.33438	-81745850.0834
14972.80584	1263281994.46
14980.2773	1488951777.48
14987.74876	367274322.08
14995.22022	817353848.037
15002.69168	1043249311.69
15010.16314	-307541321.573
15017.6346	1721916579.46
15025.10606	143353670.693
15032.57752	821431436.363
15040.04898	-761173341.724
15047.52044	823065312.511
15054.9919	-989339389.541
15062.46336	824700811.983
15069.93482	-1218407248.85
15077.40628	-310302965.88
15084.87774	827157104.926
15092.3492	827976680.902
15099.82066	-539230841.075
15107.29212	373156499.95
15114.76358	-311842546.578
15122.23504	1059941035.72
15129.7065	-1228091520.73
15137.17796	-541902280.342
15144.64942	-313076954.265
15152.12088	1752894967.28
15159.59234	605557887.176
15167.0638	836194761.379
15174.53526	1297551842.21
15182.00672	-84130064.7368
15189.47818	-84212890.294
15196.94964	-315243034.962
15204.4211	-315553084.646
15211.89256	609743414.302
15219.36402	1305229647.01
15226.83548	147228889.397
15234.30694	1307793948.25
15241.7784	147517998.585
15249.24986	380202280.814
15256.72132	147807391.352
15264.19278	846938937.753
15271.66424	-1251245304.26
15279.1357	148242012.214
15286.60716	-552654047.768
15294.07862	1084167477.27
15301.55008	1085227010.53
15309.02154	-1257374343.85
15316.493	-320222117.423
15323.96446	618760941.642
15331.43592	-320847245.859
15338.90738	-556442118.283
15346.37884	149549703.123
15353.8503	-321786081.483
15361.32176	1093721905.8
15368.79322	3692983951.79
15376.26468	-322726288.67
15383.73614	1333575367.52
15391.2076	3466874486.74
15398.67906	-323667867.422
15406.15052	2761561128.19
15413.62198	150863136.514
15421.09344	-1038041186.39
15428.5649	3007643168.93
15436.03636	1580929534.8
15443.50782	151448727.954
15450.97928	629060824.473
15458.45074	1585524144.73
15465.9222	-1044085081.55
15473.39366	1588590921.86
15480.86512	-566789242.202
15488.33658	-807225038.102
15495.80804	-567883958.012
15503.2795	1354381690.06
15510.75096	2558604409.47
15518.22242	3283515621.19
15525.69388	1358300805.52
15533.16534	-88066917.3001
15540.6368	2568473655.51
15548.10826	-813467451.114
15555.57972	-1056225503.76
15563.05118	-1057240373.27
15570.52264	-88491028.9782
15577.9941	1124793527.33
15585.46556	-574474432.347
15592.93702	-1547584094.45
15600.40848	-88831051.8311
15607.87994	398295673.022
15615.3514	2105551486.35
15622.82286	2595712038.41
15630.29432	-577783927.753
15637.76578	888901877.075
15645.23724	-823662653.516
15652.7087	645594208.22
15660.18016	-825236781.496
15667.65162	-89598487.1593
15675.12308	1630282423.51
15682.59454	1139949380.93
15690.066	-1320745887.87
15697.53746	402884735.574
15705.00892	1883152175.03
15712.48038	403652134.896
15719.95184	-1325782092.6
15727.4233	651772108.037
15734.89476	1395152255.37
15742.36622	-833921346.998
15749.83768	1645860762.39
15757.30914	-1083798034.17
15764.7806	1151928704.64
15772.25206	655492968.841
15779.72352	158114793.223
15787.19498	-838677542.757
15794.66644	1405771834.6
15802.1379	-1089973509.05
15809.60936	-1091004460.53
15817.08082	659224420.331
15824.55228	409430903.7
15832.02374	-91488336.1319
15839.4952	661094117.583
15846.96666	1666223347.66
15854.43812	-91747570.9568
15861.90958	-343434239.59
15869.38104	411753911.259
15876.8525	-848230508.457
15884.32396	2431023688.76
15891.79542	160368717.661
15899.26688	-1103413890.16
15906.73834	413694770.749
15914.2098	1933655931.62
15921.68126	-1106527212.54
15929.15272	414861476.927
15936.62418	-854629207.207
15944.09564	924068565.301
15951.5671	1688292290.7
15959.03856	2708637846.56
15966.51002	-602908130.847
15973.98148	-1113808688.07
15981.45294	-348630333.97
15988.9244	1184917835.58
15996.39586	674256133.143
16003.86732	1699381208.62
16011.33878	-93572483.8777
16018.81024	1189351574.78
16026.2817	-1377955748.01
16033.75316	-865078373.932
16041.22462	1964644974.61
16048.69608	678672301.863
16056.16754	421503843.779
16063.639	679936712.025
16071.11046	680569358.385
16078.58192	2490847874.84
16086.05338	2751924440.42
16093.52484	-1389543271.63
16100.9963	-353865441.729
16108.46776	1202702470.12
16115.93922	944094911.387
16123.41068	-874780111.632
16130.88214	945846478.564
16138.3536	165383500.143
16145.82506	1729662669.67
16153.29652	426618896.137
16160.76798	-617668047.329
16168.23944	1995880364.91
16175.7109	1736071789.4
16183.18236	428198964.771
16190.65382	-619954646.197
16198.12528	1216127882.09
16205.59674	692007298.618
16213.0682	166918373.591
16220.53966	693284064.58
16228.01112	-96122145.8925
16235.48258	2539698269.52
16242.95404	-96299247.9201
16250.4255	3864757073.91
16257.89696	1489438768.42
16265.36842	432559213.086
16272.83988	-891069894.263
16280.31134	433354358.53
16287.7828	2821379021.92
16295.25426	-362455700.058
16302.72572	2295000507.06
16310.19718	-629143288.299
16317.66864	-363453512.938
16325.1401	-363786422.024
16332.61156	-897627884.245
16340.08302	-898449323.583
16347.55448	-364786063.656
16355.02594	-1167580202.82
16362.4974	-1704109859.22
16369.96886	170164684.103
16377.44032	1511422807.34
16384.91178	-903385849.039
16392.38324	170630994.962
16399.8547	1246607510.43
16407.32616	-905859183.54
16414.79762	440543524.781
16422.26908	440944657.038
16429.74054	1251155094.47
16437.212	-368798345.824
16444.68346	-1180416535.54
16452.15492	983897814.495
16459.62638	3152146062.12
16467.09784	-1183636583.7
16474.5693	1257991994.83
16482.04076	-914128051.522
16489.51222	-914957004.598
16496.98368	2077868842.56
16504.45514	172972120.062
16511.9266	-1735377278.08
16519.39806	-1464057598.3
16526.86952	1812266756.03
16534.34098	993752409.022
16541.81244	994650716.239
16549.2839	-1469359749.14
16556.75536	-374182192.089
16564.22682	-1746388028.57
16571.69828	-1473342651.53
16579.16974	2098623816.86
16586.6412	-650650915.794
16594.11266	-1477330944.73
16601.58412	175013998.011
16609.05558	175171561.81
16616.52704	1003656109.12
16623.9985	728201554.347
16631.46996	728856264.635
16638.94142	175802525.952
16646.41288	-101142617.547
16653.88434	-101233430.218
16661.3558	1841881156.02
16668.82726	732134228.859
16676.29872	1288988582.26
16683.77018	-1493338025.5
16691.24164	-658883199.802
16698.7131	455914876.386
16706.18456	-1497353272.7
16713.65602	1294770089.17
16721.12748	-940840890.641
16728.59894	-381989820.706
16736.0704	1018149150.6
16743.54186	1299404609.27
16751.01332	-663610597.739
16758.48478	1020878162.06
16765.95624	1302885932.85
16773.4277	1585395285.81
16780.89916	178815096.152
16788.37062	1024522525.65
16795.84208	-385066924.756
